[
{"icon_url":"/avator/1.jpg","name":"カミヤマモエ","email":"moe20036@wxkhjx.xij.sqa"},
{"icon_url":"/avator/1.jpg","name":"ヒラオカヒロアキ","email":"hiroaki629@cpkydtcpd.uab"},
{"icon_url":"/avator/1.jpg","name":"フジタニカズヤ","email":"kazuyafujitani@ogvifphe.uzz.gw"},
{"icon_url":"/avator/1.jpg","name":"イシヤマミツヨ","email":"mitsuyo858@ycvqrpcvck.tv"},
{"icon_url":"/avator/1.jpg","name":"タケウチヨシロウ","email":"yoshirou6309@ucgwbnw.nk"},
{"icon_url":"/avator/1.jpg","name":"キシダテルミ","email":"terumi0620@blzedlyy.uyj"},
{"icon_url":"/avator/1.jpg","name":"ノロハルナ","email":"haruna8361@ujvu.qz"},
{"icon_url":"/avator/1.jpg","name":"ウエダヨシアキ","email":"yoshiaki_ueda@clvnbff.dqr"},
{"icon_url":"/avator/1.jpg","name":"オカモトミヤコ","email":"Miyako_Okamoto@tzjo.cg.yp"},
{"icon_url":"/avator/1.jpg","name":"テラシマハルナ","email":"haruna366@hndwzzw.okz"},
{"icon_url":"/avator/2.jpg","name":"アキモトユウナ","email":"yuuna291@npbb.go"},
{"icon_url":"/avator/2.jpg","name":"エノモトカツタロウ","email":"Katsutarou_Enomoto@kulro.jyq"},
{"icon_url":"/avator/2.jpg","name":"オオバヤシマリコ","email":"mariko74643@lgrixpy.ga"},
{"icon_url":"/avator/2.jpg","name":"サカグチネネ","email":"nene8732@kdtq.ilk.vn"},
{"icon_url":"/avator/2.jpg","name":"ヤマギシケンジ","email":"iyamagishi@bjjsai.he"},
{"icon_url":"/avator/2.jpg","name":"イワモトシノブ","email":"shinobu78295@nzggvbnqhw.po"},
{"icon_url":"/avator/2.jpg","name":"シラカワコハル","email":"koharu_shirakawa@lcjghkb.vj"},
{"icon_url":"/avator/2.jpg","name":"カワバタマサヒコ","email":"masahiko_kawabata@rbnh.eb.hk"},
{"icon_url":"/avator/2.jpg","name":"クロイワチエリ","email":"ikuroiwa@gzivejepoo.siy"},
{"icon_url":"/avator/3.jpg","name":"ニヘイオトハ","email":"otoha8993@beweque.ftc"},
{"icon_url":"/avator/3.jpg","name":"Aida Anri","email":"anri_aida@fctptsotp.rs"},
{"icon_url":"/avator/3.jpg","name":"Omata Shuuzou","email":"shuuzou50114@sprlgck.aenhb.vuz"},
{"icon_url":"/avator/3.jpg","name":"Hama Riko","email":"riko05180@ulmcqzv.yb"},
{"icon_url":"/avator/3.jpg","name":"Itagaki Taichi","email":"taichi25642@nwmwllrmug.lsy"},
{"icon_url":"/avator/3.jpg","name":"Kosuge Yutaka","email":"yutakakosuge@cmltfnhxg.ill"},
{"icon_url":"/avator/3.jpg","name":"Kawada Hiromichi","email":"hiromichi02784@lwckpyk.mjx"},
{"icon_url":"/avator/3.jpg","name":"Koga Nagisa","email":"nagisa607@nrbac.cq.qiy"},
{"icon_url":"/avator/3.jpg","name":"Chin Kazuo","email":"dc-nmehriutkazuo611@glotlth.oj"},
{"icon_url":"/avator/3.jpg","name":"Shida Ringo","email":"ringo02854@jjnanvnt.nm"},
{"icon_url":"/avator/3.jpg","name":"Kokubu Chika","email":"akokubu@mqhagbmyx.mkp"},
{"icon_url":"/avator/4.jpg","name":"Shiraishi Amna","email":"amna1248@eutebavjdy.ok"},
{"icon_url":"/avator/4.jpg","name":"Kudou Toshio","email":"toshio021@rstol.ssgik.wgv"},
{"icon_url":"/avator/4.jpg","name":"Noguchi Yoshihiro","email":"yoshihiro02568@cquekssl.hb"},
{"icon_url":"/avator/4.jpg","name":"Hanai Yoshihiko","email":"yoshihiko2090@vzgemczia.cgc"},
{"icon_url":"/avator/4.jpg","name":"Nakamori Tomiko","email":"tomikonakamori@zrhk.dk"},
{"icon_url":"/avator/4.jpg","name":"Matsuki Hideyuki","email":"hideyukimatsuki@txlhy.dlh.tj"},
{"icon_url":"/avator/4.jpg","name":"Terashima Yoshitaka","email":"yoshitaka763@fadvz.widk.fl"},
{"icon_url":"/avator/4.jpg","name":"Kase Yuuichi","email":"yuuichi1092@zhyycoxgr.ady"},
{"icon_url":"/avator/4.jpg","name":"Saitou Kazuyo","email":"kazuyo19957@kmbwuavp.iyn"},
{"icon_url":"/avator/4.jpg","name":"Hatanaka Yuri","email":"yuri_hatanaka@pbiqabvms.bf"},
{"icon_url":"/avator/4.jpg","name":"平田辰也","email":"tatsuyahirata@duyvmkrum.zi"},
{"icon_url":"/avator/5.jpg","name":"津村雅博","email":"masahiro9923@queczb.hyi"},
{"icon_url":"/avator/5.jpg","name":"鬼頭利夫","email":"toshio_kitou@wvupgaaie.gbb.ayh"},
{"icon_url":"/avator/5.jpg","name":"豊島幸雄","email":"sachio937@euren.nvave.cry"},
{"icon_url":"/avator/5.jpg","name":"赤塚恵美子","email":"emiko424@knlioosw.pbp"},
{"icon_url":"/avator/5.jpg","name":"柳川裕紀","email":"yuki2605@vkdhvj.nr"},
{"icon_url":"/avator/5.jpg","name":"倉持彩華","email":"wlrzhcyvkfjeyxayaka20880@qred.eju"},
{"icon_url":"/avator/5.jpg","name":"長沢清吾","email":"Seigo_Nagasawa@uzuzfhx.ej"},
{"icon_url":"/avator/5.jpg","name":"毛利喜太郎","email":"Kitarou_Mouri@yacqrih.kea"},
{"icon_url":"/avator/5.jpg","name":"西沢帆香","email":"honoka17227@azbcvoqo.pi"},
{"icon_url":"/avator/5.jpg","name":"本間岩夫","email":"iwao21572@ryodniqah.la"},
{"icon_url":"/avator/5.jpg","name":"竹中瑠菜","email":"zgcxptchryruna744@rspbqgmfm.in"},
{"icon_url":"/avator/6.jpg","name":"柿崎奈美","email":"frvphvywnami3785@fvto.okw"},
{"icon_url":"/avator/6.jpg","name":"平沢花","email":"ahirasawa@wvgsnakd.yve"},
{"icon_url":"/avator/6.jpg","name":"滝実優","email":"miyu193@ocpanlj.pmd.zli"},
{"icon_url":"/avator/6.jpg","name":"尾上義弘","email":"yoshihiro6561@uolnvmfat.jj"},
{"icon_url":"/avator/6.jpg","name":"矢部義治","email":"yoshiharu553@vfedzmr.idop.hxb"},
{"icon_url":"/avator/6.jpg","name":"吉崎信夫","email":"Nobuo_Yoshizaki@clgaqgmguf.fm"},
{"icon_url":"/avator/6.jpg","name":"相馬洋","email":"hiroshi202@xcmifvir.jlh"},
{"icon_url":"/avator/6.jpg","name":"守屋真幸","email":"Masaki_Moriya@jzgcilahd.uxybp.gr"}
]
